^C:\USERS\JMAGU\SOURCE\REPOS\CA3\CA3\MAINAPP.CPP|C:\USERS\JMAGU\SOURCE\REPOS\CA3\CA3\STUDENT.CPP
C:\USERS\JMAGU\SOURCE\REPOS\CA3\CA3\DEBUG\VC142.PDB
C:\USERS\JMAGU\SOURCE\REPOS\CA3\CA3\DEBUG\VC142.IDB
C:\USERS\JMAGU\SOURCE\REPOS\CA3\CA3\DEBUG\STUDENT.OBJ
C:\USERS\JMAGU\SOURCE\REPOS\CA3\CA3\DEBUG\MAINAPP.OBJ
^C:\USERS\JMAGU\SOURCE\REPOS\CA3\CA3\STUDENT.CPP
C:\USERS\JMAGU\SOURCE\REPOS\CA3\CA3\DEBUG\VC142.PDB
^C:\USERS\JMAGU\SOURCE\REPOS\CA3\CA3\MAINAPP.CPP
C:\USERS\JMAGU\SOURCE\REPOS\CA3\CA3\DEBUG\VC142.PDB
C:\USERS\JMAGU\SOURCE\REPOS\CA3\CA3\DEBUG\VC142.IDB
C:\USERS\JMAGU\SOURCE\REPOS\CA3\CA3\DEBUG\MAINAPP.OBJ
